…
Apr17_long

## # A tibble: 4,503 x 4
##    trump_approval       weight subgroup_variable subgroup                
##    <fct>                 <dbl> <chr>             <chr>                   
##  1 Strongly disapprove    2.94 educ_cat          College grad+           
##  2 Not strongly approve   1.32 educ_cat          Some college            
##  3 Strongly disapprove    1.24 educ_cat          College grad+           
##  4 Strongly approve       4.09 educ_cat          Some college            
##  5 Refused                1.12 educ_cat          College grad+           
##  6 Strongly disapprove    6.68 educ_cat          High School Grad or Less
##  7 Strongly disapprove    1.79 educ_cat          Some college            
##  8 Not strongly approve   1    educ_cat          College grad+           
##  9 Strongly disapprove    4.47 educ_cat          High School Grad or Less
## 10 Strongly disapprove    1.32 educ_cat          College grad+           
## # ... with 4,493 more rows
…
Since we are only really interested in the proportions we remove the weighted_total and weighted_group_size columns using the select() function. Including the - before a column name tells select() to drop that column.

trump_estimates = trump_estimates %>% 
  select(-weighted_n, -weighted_group_size) 

Here’s what we end up with.

trump_estimates

## # A tibble: 70 x 4
## # Groups:   subgroup [14]
##    subgroup_variable subgroup          trump_approval     weighted_estima…
##    <chr>             <chr>             <fct>                         <dbl>
##  1 educ_cat          College grad+     Strongly approve             0.267 
##  2 educ_cat          College grad+     Not strongly appr…           0.0671
##  3 educ_cat          College grad+     Not strongly disa…           0.0780
##  4 educ_cat          College grad+     Strongly disappro…           0.537 
##  5 educ_cat          College grad+     Refused                      0.0507
##  6 educ_cat          Don't know/Refus… Strongly approve             0.0203
##  7 educ_cat          Don't know/Refus… Strongly disappro…           0.0704
##  8 educ_cat          High School Grad… Strongly approve             0.322 
##  9 educ_cat          High School Grad… Not strongly appr…           0.101 
## 10 educ_cat          High School Grad… Not strongly disa…           0.120 
## # ... with 60 more rows
…
